id,fips_code,name,people_first_code
1,12001,Alachua,1
2,12003,Baker,2
3,12005,Bay,3
4,12007,Bradford,4
5,12009,Brevard,5
6,12011,Broward,6
7,12013,Calhoun,7
8,12015,Charlotte,8
9,12017,Citrus,9
10,12019,Clay,10
11,12021,Collier,11
12,12023,Columbia,12
13,12025,Dade,13
14,12027,DeSoto,14
15,12029,Dixie,15
16,12031,Duval,16
17,12033,Escambia,17
18,12035,Flagler,18
19,12037,Franklin,19
20,12039,Gadsden,20
21,12041,Gilchrist,21
22,12043,Glades,22
23,12045,Gulf,23
24,12047,Hamilton,24
25,12049,Hardee,25
26,12051,Hendry,26
27,12053,Hernando,27
28,12055,Highlands,28
29,12057,Hillsborough,29
30,12059,Holmes,30
31,12061,Indian River,30
32,12063,Jackson,32
33,12065,Jefferson,33
34,12067,Lafayette,34
35,12069,Lake,35
36,12071,Lee,36
37,12073,Leon,37
38,12075,Levy,38
39,12077,Liberty,39
40,12079,Madison,40
41,12081,Manatee,41
42,12083,Marion,42
43,12085,Martin,43
44,12086,Miami-Dade,43
45,12087,Monroe,44
46,12089,Nassau,45
47,12091,Okaloosa,46
48,12093,Okeechobee,47
49,12095,Orange,48
50,12097,Osceola,49
51,12099,Palm Beach,50
52,12101,Pasco,51
53,12103,Pinellas,52
54,12105,Polk,53
55,12107,Putnam,54
56,12109,St. Johns,55
57,12111,St. Lucie,56
58,12113,Santa Rosa,57
59,12115,Sarasota,58
60,12117,Seminole,59
61,12119,Sumter,60
62,12121,Suwannee,61
63,12123,Taylor,62
64,12125,Union,63
65,12127,Volusia,64
66,12129,Wakulla,65
67,12131,Walton,66
68,12133,Washington,67
