lookup_address,room,long_number,comment
4050 ESPLANADE WAY,SUITE 310,414-6560,OCE/scanner
4050 ESPLANADE WAY,SUITE 325,487-9947,OCE/scanner
4050 ESPLANADE WAY,SUITE 380-K,922-6852,OCE/scanner
4050 ESPLANADE WAY,SUITE 370,414-8331,OCE/scanner
4050 ESPLANADE WAY,SUITE 360-K,414-6122,OCE/scanner
4050 ESPLANADE WAY,SUITE 315-B,488-6687,OCE/scanner
4050 ESPLANADE WAY,SUITE 280-I,488-9082,OCE/scanner
4050 ESPLANADE WAY,SUITE 270,487-9907,BROTHER
4050 ESPLANADE WAY,SUITE 260.5Z,921-5427,OCE/scanner
4050 ESPLANADE WAY,SUITE 260.4Z,922-6549,OCE/scanner
4050 ESPLANADE WAY,SUITE 220,922-6642,OCE/scanner
4050 ESPLANADE WAY,SUITE 215,488-0252,OCE/scanner
4050 ESPLANADE WAY,SUITE 180,413-8847,HP 3100
4050 ESPLANADE WAY,SUITE 160-B,922-6312,PANAFAX
4050 ESPLANADE WAY,*  PERC SUITE ,488-9704,????
4040 ESPLANADE WAY,SUITE 135-J,921-3066,OCE/scanner
4030 ESPLANADE WAY,SUITE 235-A,413-9529,OCE/scanner
4030 ESPLANADE WAY,SUITE 180-A,488-9837,OCE/scanner
4030 ESPLANADE WAY,SUITE 160.05,488-3600,Danka Omnifax 1621
4030 ESPLANADE WAY,SUITE 151,487-4575,Brother MFC8500
4030 ESPLANADE WAY,SUITE 125.07,922-5162,Muratech & Brother??
